<svg width="30" height="23" viewBox="0 0 30 23" fill="none" xmlns="http://www.w3.org/2000/svg">
<path d="M11.0259 0.00382105C11.0259 0.00382105 6.87339 0.289144 4.15772 2.46983C4.14499 2.47492 4.1297 2.48256 4.11696 2.49021C3.64567 2.92584 3.29156 3.60093 2.85339 4.56899C2.41522 5.53705 1.95157 6.78279 1.52868 8.17629C0.685444 10.9658 0.000159385 14.3897 0.000159385 17.6123C-0.00238798 17.727 0.025635 17.8391 0.0816803 17.9384C1.03446 19.6121 2.78715 20.6235 4.42267 21.2604C6.05818 21.8973 7.56886 22.152 8.33567 22.1775C8.55221 22.1851 8.75856 22.0858 8.88593 21.9126L10.4756 19.7115C11.757 20.0147 13.26 20.221 15 20.221C16.74 20.221 18.243 20.0147 19.5244 19.7115L21.1141 21.9126C21.2414 22.0858 21.4478 22.1851 21.6643 22.1775C22.4311 22.152 23.9418 21.8973 25.5773 21.2604C27.2128 20.6235 28.9655 19.6121 29.9183 17.9384C29.9744 17.8391 30.0024 17.727 29.9998 17.6123C29.9998 14.3897 29.3146 10.9658 28.4713 8.17629C28.0484 6.78279 27.5848 5.53705 27.1466 4.56899C26.7084 3.60093 26.3543 2.92584 25.883 2.49021C25.8703 2.48256 25.855 2.47492 25.8423 2.46983C23.1266 0.289144 18.9741 0.00382105 18.9741 0.00382105C18.9257 -0.00127368 18.8799 -0.00127368 18.8315 0.00382105C18.6047 0.0343914 18.4137 0.182148 18.322 0.391045C18.322 0.391045 18.1003 0.877623 17.9551 1.5731C16.6839 1.3693 15.614 1.30816 15 1.30816C14.386 1.30816 13.3161 1.3693 12.0449 1.5731C11.8997 0.877623 11.678 0.391045 11.678 0.391045C11.5659 0.136292 11.3035 -0.0191065 11.0259 0.00382105ZM10.6183 1.41006C10.6667 1.54253 10.6998 1.66736 10.7405 1.81766C9.27061 2.15903 7.66057 2.71694 6.15498 3.65188C5.91807 3.75123 5.76267 3.98051 5.75502 4.23781C5.74993 4.49257 5.89514 4.72948 6.12441 4.84158C6.35624 4.95112 6.63137 4.918 6.82753 4.75241C9.8489 2.87998 13.6931 2.61249 15 2.61249C16.3069 2.61249 20.1511 2.87998 23.1725 4.75241C23.3686 4.918 23.6438 4.95112 23.8756 4.84158C24.1049 4.72948 24.2501 4.49257 24.245 4.23781C24.2373 3.98051 24.0819 3.75123 23.845 3.65188C22.3394 2.71694 20.7294 2.15903 19.2595 1.81766C19.3002 1.66736 19.3333 1.54253 19.3817 1.41006C20.1256 1.50177 23.0171 1.89154 24.9863 3.44808C25.1137 3.56526 25.557 4.21743 25.9646 5.11926C26.3722 6.02108 26.8001 7.19549 27.2078 8.54313C28.0026 11.1722 28.6446 14.4152 28.6751 17.3881C27.9338 18.588 26.5428 19.4797 25.1086 20.0376C23.8043 20.5445 22.5865 20.7713 21.9497 20.8324L20.8491 19.3447C21.4096 19.1638 21.914 18.9676 22.3573 18.774C24.003 18.0505 24.8844 17.2862 24.8844 17.2862C25.1544 17.0442 25.1774 16.629 24.9354 16.3589C24.6933 16.0889 24.2781 16.066 24.0081 16.308C24.0081 16.308 23.3253 16.9321 21.8274 17.592C21.2771 17.834 20.6097 18.0734 19.8505 18.2849C19.6747 18.2645 19.4989 18.3154 19.3614 18.4275C18.1462 18.7231 16.7017 18.9167 15 18.9167C13.2855 18.9167 11.8385 18.7052 10.6183 18.4072C10.4807 18.3154 10.3125 18.2772 10.1495 18.3053C9.3878 18.0938 8.72544 17.834 8.17263 17.592C6.67468 16.9321 5.99194 16.308 5.99194 16.308C5.84419 16.1704 5.64038 16.1118 5.44168 16.145C5.18947 16.1832 4.98058 16.364 4.91179 16.6112C4.84046 16.8557 4.92198 17.1207 5.11559 17.2862C5.11559 17.2862 5.99704 18.0505 7.64274 18.774C8.08601 18.9676 8.59042 19.1638 9.15088 19.3447L8.05035 20.8324C7.41346 20.7713 6.19575 20.5445 4.89141 20.0376C3.45715 19.4797 2.0662 18.588 1.32487 17.3881C1.35544 14.4152 1.99742 11.1722 2.79225 8.54313C3.19985 7.19549 3.62784 6.02108 4.03544 5.11926C4.44305 4.21743 4.88632 3.56526 5.01369 3.44808C6.98293 1.89154 9.87437 1.50177 10.6183 1.41006ZM10.7609 9.13416C9.09738 9.13416 7.82616 10.6448 7.82616 12.395C7.82616 14.1451 9.09738 15.6558 10.7609 15.6558C12.4244 15.6558 13.6957 14.1451 13.6957 12.395C13.6957 10.6448 12.4244 9.13416 10.7609 9.13416ZM19.2391 9.13416C17.5756 9.13416 16.3043 10.6448 16.3043 12.395C16.3043 14.1451 17.5756 15.6558 19.2391 15.6558C20.9026 15.6558 22.1738 14.1451 22.1738 12.395C22.1738 10.6448 20.9026 9.13416 19.2391 9.13416ZM10.7609 10.4385C11.6194 10.4385 12.3913 11.2639 12.3913 12.395C12.3913 13.5261 11.6194 14.3515 10.7609 14.3515C9.9024 14.3515 9.1305 13.5261 9.1305 12.395C9.1305 11.2639 9.9024 10.4385 10.7609 10.4385ZM19.2391 10.4385C20.0976 10.4385 20.8695 11.2639 20.8695 12.395C20.8695 13.5261 20.0976 14.3515 19.2391 14.3515C18.3806 14.3515 17.6087 13.5261 17.6087 12.395C17.6087 11.2639 18.3806 10.4385 19.2391 10.4385Z" fill="#1E272E"/>
</svg>
