<svg width="22" height="22" viewBox="0 0 22 22" fill="none" xmlns="http://www.w3.org/2000/svg">
<path d="M16.9342 2.29605C15.8098 0.921356 12.853 -1.11986 9.77124 0.754726L4.69054 3.83737C4.48231 3.96235 4.27409 4.08732 4.06586 4.25395C3.02473 5.0871 2.40006 6.2535 2.23348 7.54488C2.0669 8.83626 2.4417 10.1276 3.2746 11.1691L4.5656 12.7937C4.60725 12.877 4.60725 12.9603 4.52396 13.0437L2.0669 14.5433C1.94196 14.6266 1.81703 14.7933 1.77538 15.0016C1.73374 15.1682 1.77538 15.3765 1.90032 15.5431L5.48179 20.0004L5.64837 20.1671C6.60621 21.3751 8.06379 22 9.52137 22C10.5208 22 11.5203 21.7084 12.3949 21.0835C12.3949 21.0835 12.4365 21.0835 12.4365 21.0419L17.4339 18.0009C17.5172 17.9592 19.6828 16.6679 20.0576 14.5433C20.3074 13.2936 19.9326 12.0855 18.9332 10.8775L17.4756 9.04455C17.4339 8.96123 17.4339 8.87792 17.5172 8.7946L19.9326 7.29494C20.0992 7.21162 20.2241 7.04499 20.2241 6.83671C20.2658 6.67008 20.2241 6.46179 20.0992 6.29516L16.9342 2.29605ZM4.31573 10.3359C3.7327 9.58609 3.44118 8.66963 3.56612 7.71151C3.69105 6.75339 4.14915 5.92024 4.89876 5.29538C4.98205 5.21207 5.10699 5.12875 5.19028 5.0871L5.35686 5.00378C6.31469 4.46223 7.5224 4.37892 8.64682 4.83715C9.18821 5.0871 9.6463 5.50367 10.0211 5.9619L10.6458 6.75339C10.6874 6.83671 10.6874 6.92002 10.6041 7.00334L7.27253 9.04455C7.23089 9.08621 7.1476 9.12786 7.10595 9.16952C6.73115 9.46112 6.48128 9.91935 6.39798 10.4192C6.35634 10.9191 6.48128 11.3774 6.77279 11.7939L8.89669 14.5017C8.97998 14.6266 9.02162 14.7516 9.02162 14.9182C9.02162 15.0432 8.93833 15.2098 8.8134 15.2932C8.56353 15.4598 8.23037 15.4598 8.06379 15.2098L4.31573 10.3359ZM8.68846 10.2526L11.3954 13.6685L10.3543 14.2934C10.271 14.0434 10.1877 13.7935 10.0211 13.5852L7.89721 10.8775C7.81392 10.7525 7.77227 10.6275 7.77227 10.4609C7.77227 10.3359 7.85556 10.1693 7.9805 10.086C8.10543 10.0027 8.23037 9.96101 8.39695 9.96101C8.48024 10.086 8.60517 10.1693 8.68846 10.2526ZM13.1028 17.1261C13.1028 18.2508 12.6031 19.2506 11.7286 19.9588C10.1877 21.2085 7.89721 20.9169 6.64786 19.3756L3.52447 15.4181C3.48283 15.3348 3.48283 15.2515 3.56612 15.1682L5.3985 14.0434C5.48179 14.0018 5.56508 14.0018 5.60673 14.0851L6.85608 15.6681L7.06431 15.918C7.64734 16.6262 8.64682 16.8345 9.43808 16.3763C9.43808 16.3763 9.47972 16.3763 9.47972 16.3346L12.1867 14.6683C12.728 15.4181 13.1028 16.2513 13.1028 17.1261ZM17.9337 11.7106C18.6416 12.6271 18.9332 13.5019 18.7666 14.335C18.4751 15.8764 16.7676 16.9178 16.7676 16.9178L14.2273 18.4591C14.3105 18.2092 14.3522 17.9592 14.3938 17.7093C14.5604 16.4179 14.1856 15.1265 13.3527 14.0851L9.72959 9.46112C9.6463 9.37781 9.60466 9.29449 9.52137 9.25284L11.5203 8.04477C11.6036 8.00311 11.6869 8.00311 11.7286 8.08643L13.6026 10.4609C13.8525 10.7942 14.3105 10.8775 14.6854 10.6692L16.1846 9.75272C16.2679 9.71107 16.3512 9.71107 16.3928 9.79438L17.9337 11.7106ZM15.9764 8.25306L14.4355 9.16952C14.3522 9.21118 14.2689 9.21118 14.2273 9.12786L10.9789 5.04544C10.3543 4.25395 9.47972 3.67074 8.48024 3.37914C8.3553 3.33749 8.3553 3.17086 8.43859 3.08754L10.4376 1.87948C13.2694 0.171523 15.7265 2.96257 15.8931 3.1292L18.5167 6.46179C18.5583 6.5451 18.5583 6.62842 18.4751 6.71173L16.1429 8.12809L15.9764 8.25306Z" fill="#1E272E"/>
</svg>
