<svg width="24" height="24" viewBox="0 0 24 24" fill="none" xmlns="http://www.w3.org/2000/svg">
<path d="M12 0C5.3832 0 0 5.3832 0 12C0 18.6171 5.3832 24 12 24C18.6171 24 24 18.6171 24 12C24 5.3832 18.6171 0 12 0ZM12.6 8.2845C14.0091 8.2272 15.3759 7.9659 16.6602 7.5288C17.0958 8.7471 17.355 10.0518 17.415 11.3997H12.6V8.2845ZM12.6 7.0839V1.9536C14.1405 3.0936 15.3678 4.6371 16.2018 6.4176C15.0612 6.7983 13.8498 7.0287 12.6 7.0839ZM11.4 1.9536V7.0842C10.1502 7.0284 8.9388 6.798 7.7988 6.417C8.6325 4.6365 9.8598 3.0933 11.4 1.9536ZM11.4 8.2848V11.4H6.585C6.6447 10.0524 6.9039 8.748 7.3395 7.5303C8.6238 7.9668 9.9909 8.2275 11.4 8.2848ZM5.3859 11.4H1.2177C1.3404 9.1686 2.1447 7.1166 3.4242 5.4462C4.2777 6.1023 5.2182 6.6558 6.2235 7.0968C5.7351 8.4513 5.4468 9.9018 5.3859 11.4ZM5.3859 12.6C5.4471 14.0997 5.7357 15.5517 6.2244 16.9071C5.2203 17.3481 4.2798 17.9013 3.4269 18.5574C2.1456 16.8867 1.3404 14.8332 1.2177 12.6H5.3859ZM6.585 12.6H11.4V15.7164C9.9909 15.7737 8.6244 16.0353 7.3404 16.473C6.9042 15.2541 6.6447 13.9488 6.585 12.6ZM11.4 16.9167V22.0467C9.8598 20.907 8.6328 19.3641 7.7988 17.5839C8.9391 17.2026 10.1502 16.9719 11.4 16.9167ZM12.6 22.0464V16.9164C13.8495 16.9722 15.0609 17.2023 16.2015 17.5833C15.3675 19.3635 14.1405 20.9067 12.6 22.0464ZM12.6 15.7164V12.6H17.415C17.3553 13.9488 17.0961 15.2544 16.6593 16.4733C15.3756 16.0356 14.0091 15.774 12.6 15.7164ZM18.6144 12.6H22.7826C22.6599 14.8338 21.8538 16.8879 20.5722 18.5589C19.7193 17.9028 18.7794 17.3487 17.7756 16.9074C18.2646 15.552 18.5532 14.1 18.6144 12.6ZM18.6144 11.4C18.5532 9.9012 18.2649 8.4501 17.7762 7.095C18.7809 6.654 19.722 6.1011 20.5752 5.4453C21.8553 7.1154 22.6596 9.168 22.7823 11.4H18.6144ZM19.7901 4.5315C19.0371 5.1042 18.2097 5.5911 17.3265 5.9817C16.4913 4.1706 15.2799 2.5803 13.7712 1.3476C16.1187 1.7367 18.2112 2.8851 19.7901 4.5315ZM10.2291 1.3476C8.7207 2.5803 7.5093 4.1703 6.6738 5.9814C5.7909 5.5902 4.9626 5.1045 4.2096 4.5318C5.7885 2.8854 7.8813 1.7367 10.2291 1.3476ZM4.2123 19.4709C4.965 18.8982 5.7918 18.411 6.6744 18.0198C7.5096 19.83 8.7207 21.4194 10.2285 22.6521C7.8825 22.2633 5.7909 21.1161 4.2123 19.4709ZM13.7718 22.6524C15.2799 21.4194 16.491 19.8294 17.3265 18.0186C18.2094 18.4095 19.0377 18.8952 19.7907 19.4682C18.2118 21.1146 16.119 22.263 13.7718 22.6524Z" fill="#1E272E"/>
</svg>
